{
"skeleton": {
	"hash": "JwnNjhoDL3CWvg97ReHlU67P3J4",
	"spine": "3.8.75",
	"x": -557.39,
	"y": -73.17,
	"width": 1253.68,
	"height": 737.22,
	"images": "./Images/",
	"audio": ""
},
"bones": [
	{ "name": "root" },
	{ "name": "All bone", "parent": "root", "x": -11.98, "y": 66.49 },
	{ "name": "Body", "parent": "All bone", "length": 136.74, "rotation": 93.39, "x": 1.8, "y": 37.72 },
	{ "name": "Cloth", "parent": "Body", "length": 88.43, "rotation": -173.45, "x": 89.31, "y": -41.27 },
	{ "name": "Hand B", "parent": "Body", "length": 53.16, "rotation": 139.16, "x": 99.9, "y": 61.55 },
	{ "name": "Hand F1", "parent": "Body", "length": 55.37, "rotation": -175, "x": 108.92, "y": -74.82 },
	{ "name": "Hand F2", "parent": "Hand F1", "length": 57.08, "rotation": -79.1, "x": 58.37, "y": -10.43 },
	{ "name": "Head", "parent": "Body", "length": 83.34, "rotation": 49.49, "x": 134.88, "y": -16.08 },
	{ "name": "Leg B", "parent": "All bone", "length": 44.94, "rotation": -87.71, "x": -35.92, "y": 7.18 },
	{ "name": "Leg F", "parent": "All bone", "length": 48.13, "rotation": -81.42, "x": 44, "y": 2.69 },
	{ "name": "Shadow", "parent": "root", "length": 90.72, "rotation": -1.13, "x": -40.72, "y": 16.2 },
	{ "name": "Weapon", "parent": "Hand F2", "length": 200.01, "rotation": -23.93, "x": 70.94, "y": -3.9 }
],
"slots": [
	{ "name": "Shadow", "bone": "Shadow", "attachment": "Shadow" },
	{ "name": "Hand-B", "bone": "Hand B", "attachment": "Hand-B" },
	{ "name": "Leg-B", "bone": "Leg B", "attachment": "Leg-B" },
	{ "name": "Body", "bone": "Body", "attachment": "Body" },
	{ "name": "Head", "bone": "Head", "attachment": "Head" },
	{ "name": "Leg-F", "bone": "Leg F", "attachment": "Leg-F" },
	{ "name": "cloth", "bone": "Cloth", "attachment": "cloth" },
	{ "name": "Hand-F1", "bone": "Hand F1", "attachment": "Hand-F1" },
	{ "name": "Hand-F2", "bone": "Hand F2", "attachment": "Hand-F2" },
	{ "name": "Weapon", "bone": "Weapon", "attachment": "Weapon-2" },
	{ "name": "Box", "bone": "root", "color": "ffffff00", "attachment": "Box" }
],
"skins": [
	{
		"name": "default",
		"attachments": {
			"Shadow": {
				"Shadow": { "x": 41.75, "y": -1.37, "rotation": 1.13, "width": 207, "height": 27 }
			},
			"Body": {
				"Body": { "x": 53.28, "y": -10.35, "rotation": -93.39, "width": 203, "height": 224 }
			},
			"Hand-B": {
				"Hand-B": { "x": 37.99, "y": -8.02, "rotation": 127.45, "width": 86, "height": 86 }
			},
			"Head": {
				"Head": { "x": 56.63, "y": 1.22, "rotation": -142.88, "width": 137, "height": 180 },
				"Head-2": { "x": 56.63, "y": 1.22, "rotation": -142.88, "width": 137, "height": 180 }
			},
			"cloth": {
				"cloth": { "x": 42.18, "y": 10.13, "rotation": 80.06, "width": 122, "height": 240 }
			},
			"Leg-B": {
				"Leg-B": { "x": 25.8, "y": 2.87, "rotation": 87.71, "width": 39, "height": 60 }
			},
			"Leg-F": {
				"Leg-F": { "x": 27.47, "y": -0.12, "rotation": 81.42, "width": 41, "height": 63 }
			},
			"Hand-F1": {
				"Hand-F1": { "x": 23.38, "y": -1.49, "rotation": 81.61, "width": 46, "height": 91 }
			},
			"Hand-F2": {
				"Hand-F2": { "x": 22.46, "y": 2.82, "rotation": 160.71, "width": 81, "height": 51 }
			},
			"Box": {
				"Box": { "x": 69.45, "y": 295.44, "scaleX": 2.5074, "scaleY": 1.4744, "width": 500, "height": 500 }
			},
			"Weapon": {
				"Weapon": { "x": 139.24, "y": -9.45, "rotation": -175.36, "width": 318, "height": 95 },
				"Weapon-2": { "x": 138.16, "y": -8.8, "rotation": -175.36, "width": 318, "height": 94 }
			}
		}
	}
],
"animations": {
	"Attack": {
		"slots": {
			"Weapon": {
				"attachment": [
					{ "time": 0.0667, "name": "Weapon-2" },
					{ "time": 0.1333, "name": "Weapon" },
					{ "time": 0.2, "name": "Weapon-2" },
					{ "time": 0.2667, "name": "Weapon" },
					{ "time": 0.3667, "name": "Weapon-2" },
					{ "time": 0.4333, "name": "Weapon" },
					{ "time": 0.5333, "name": "Weapon-2" },
					{ "time": 0.6, "name": "Weapon" },
					{ "time": 0.6667, "name": "Weapon-2" },
					{ "time": 0.7333, "name": "Weapon" },
					{ "time": 0.8, "name": "Weapon-2" }
				]
			}
		},
		"bones": {
			"All bone": {
				"rotate": [
					{}
				],
				"translate": [
					{}
				],
				"scale": [
					{}
				],
				"shear": [
					{}
				]
			},
			"Body": {
				"rotate": [
					{},
					{ "time": 0.1667, "angle": -7.93 },
					{ "time": 0.3333, "angle": -20.6 },
					{ "time": 0.5, "angle": 20.53, "curve": "stepped" },
					{ "time": 0.8333, "angle": 20.53 }
				],
				"translate": [
					{},
					{ "time": 0.5, "y": -6.63, "curve": "stepped" },
					{ "time": 0.8333, "y": -6.63 }
				],
				"scale": [
					{}
				],
				"shear": [
					{}
				]
			},
			"Hand F1": {
				"rotate": [
					{},
					{ "time": 0.1667, "angle": 323.65 },
					{ "time": 0.3333, "angle": 277.48 },
					{ "time": 0.5, "angle": 296.92, "curve": "stepped" },
					{ "time": 0.8333, "angle": 296.92 }
				],
				"translate": [
					{},
					{ "time": 0.5, "x": -6.86, "y": 19.97, "curve": "stepped" },
					{ "time": 0.8333, "x": -6.86, "y": 19.97 }
				],
				"scale": [
					{}
				],
				"shear": [
					{}
				]
			},
			"Hand F2": {
				"rotate": [
					{},
					{ "time": 0.5, "angle": 49.44, "curve": "stepped" },
					{ "time": 0.8333, "angle": 49.44 }
				],
				"translate": [
					{},
					{ "time": 0.5, "x": 9.14, "y": 6.2, "curve": "stepped" },
					{ "time": 0.8333, "x": 9.14, "y": 6.2 }
				],
				"scale": [
					{}
				],
				"shear": [
					{}
				]
			},
			"Weapon": {
				"rotate": [
					{}
				],
				"translate": [
					{}
				],
				"scale": [
					{}
				],
				"shear": [
					{}
				]
			},
			"Hand B": {
				"rotate": [
					{},
					{ "time": 0.1667, "angle": -60.45 },
					{ "time": 0.3333, "angle": -108.65 },
					{ "time": 0.5, "angle": -39.43, "curve": "stepped" },
					{ "time": 0.8333, "angle": -39.43 }
				],
				"translate": [
					{},
					{ "time": 0.5, "x": 20.2, "y": -8.96, "curve": "stepped" },
					{ "time": 0.8333, "x": 20.2, "y": -8.96 }
				],
				"scale": [
					{}
				],
				"shear": [
					{}
				]
			},
			"Head": {
				"rotate": [
					{},
					{ "time": 0.1667, "angle": -4.6 },
					{ "time": 0.5, "angle": -10.14, "curve": "stepped" },
					{ "time": 0.8333, "angle": -10.14 }
				],
				"translate": [
					{}
				],
				"scale": [
					{}
				],
				"shear": [
					{}
				]
			},
			"Leg F": {
				"rotate": [
					{}
				],
				"translate": [
					{}
				],
				"scale": [
					{}
				],
				"shear": [
					{}
				]
			},
			"Leg B": {
				"rotate": [
					{},
					{ "time": 0.1667, "angle": -20.04 },
					{ "time": 0.3333, "angle": -43.78 },
					{ "time": 0.5, "angle": -8.59, "curve": "stepped" },
					{ "time": 0.8333, "angle": -8.59 }
				],
				"translate": [
					{},
					{ "time": 0.1667, "y": 8.84 },
					{ "time": 0.5, "y": -5.53, "curve": "stepped" },
					{ "time": 0.8333, "y": -5.53 }
				],
				"scale": [
					{}
				],
				"shear": [
					{}
				]
			},
			"Shadow": {
				"rotate": [
					{}
				],
				"translate": [
					{}
				],
				"scale": [
					{}
				],
				"shear": [
					{}
				]
			},
			"Cloth": {
				"rotate": [
					{}
				],
				"translate": [
					{}
				],
				"scale": [
					{}
				],
				"shear": [
					{}
				]
			}
		}
	},
	"Death": {
		"slots": {
			"Weapon": {
				"attachment": [
					{ "time": 0.0333, "name": "Weapon-2" },
					{ "time": 0.1, "name": "Weapon" },
					{ "time": 0.2, "name": "Weapon-2" },
					{ "time": 0.2667, "name": "Weapon" },
					{ "time": 0.3667, "name": "Weapon-2" },
					{ "time": 0.4333, "name": "Weapon" },
					{ "time": 0.5333, "name": "Weapon-2" },
					{ "time": 0.6, "name": "Weapon" },
					{ "time": 0.7, "name": "Weapon-2" },
					{ "time": 0.7667, "name": "Weapon" },
					{ "time": 0.8667, "name": "Weapon-2" },
					{ "time": 0.9333, "name": "Weapon" }
				]
			},
			"Head": {
				"attachment": [
					{ "name": "Head" },
					{ "time": 0.1667, "name": "Head-2" }
				]
			}
		},
		"bones": {
			"root": {
				"rotate": [
					{}
				],
				"translate": [
					{}
				],
				"scale": [
					{}
				],
				"shear": [
					{}
				]
			},
			"All bone": {
				"rotate": [
					{},
					{ "time": 0.1667, "angle": -10.02 },
					{ "time": 0.3333, "angle": -31.02 },
					{ "time": 0.5, "angle": -62.15 },
					{ "time": 0.6667, "angle": -110.17 },
					{ "time": 0.8333, "angle": -115.01, "curve": "stepped" },
					{ "time": 1, "angle": -115.01 }
				],
				"translate": [
					{},
					{ "time": 0.1667, "x": 17.68, "y": 30.94 },
					{ "time": 0.3333, "x": 66.3, "y": 51.93 },
					{ "time": 0.5, "x": 99.45, "y": 51.93 },
					{ "time": 0.6667, "x": 171.27, "y": 75.14 },
					{ "time": 0.8333, "x": 215.47, "y": 75.14 },
					{ "time": 1, "x": 236.47, "y": 75.14 }
				],
				"scale": [
					{}
				],
				"shear": [
					{}
				]
			},
			"Body": {
				"rotate": [
					{}
				],
				"translate": [
					{}
				],
				"scale": [
					{}
				],
				"shear": [
					{}
				]
			},
			"Hand F1": {
				"rotate": [
					{},
					{ "time": 0.1667, "angle": 351.1 },
					{ "time": 0.3333, "angle": 326.02 },
					{ "time": 0.5, "angle": 321.87 },
					{ "time": 0.6667, "angle": 319.76 },
					{ "time": 0.8333, "angle": 337.31 }
				],
				"translate": [
					{}
				],
				"scale": [
					{}
				],
				"shear": [
					{}
				]
			},
			"Hand F2": {
				"rotate": [
					{}
				],
				"translate": [
					{}
				],
				"scale": [
					{}
				],
				"shear": [
					{}
				]
			},
			"Weapon": {
				"rotate": [
					{}
				],
				"translate": [
					{}
				],
				"scale": [
					{}
				],
				"shear": [
					{}
				]
			},
			"Hand B": {
				"rotate": [
					{},
					{ "time": 0.1667, "angle": -16.63 },
					{ "time": 0.3333, "angle": -86.81 },
					{ "time": 0.5, "angle": -98.9 },
					{ "time": 0.6667, "angle": -100.77 },
					{ "time": 0.8333, "angle": -44.05 }
				],
				"translate": [
					{}
				],
				"scale": [
					{}
				],
				"shear": [
					{}
				]
			},
			"Head": {
				"rotate": [
					{},
					{ "time": 0.1667, "angle": -7.49 }
				],
				"translate": [
					{}
				],
				"scale": [
					{}
				],
				"shear": [
					{}
				]
			},
			"Leg F": {
				"rotate": [
					{},
					{ "time": 0.1667, "angle": -29.35 },
					{ "time": 0.3333, "angle": -41.69 },
					{ "time": 0.8333, "angle": -55.34 },
					{ "time": 1, "angle": -7.88 }
				],
				"translate": [
					{},
					{ "time": 0.3333, "x": -6.63, "y": -3.99 }
				],
				"scale": [
					{}
				],
				"shear": [
					{}
				]
			},
			"Leg B": {
				"rotate": [
					{},
					{ "time": 0.1667, "angle": -26.23 },
					{ "time": 0.3333, "angle": -41.44 },
					{ "time": 0.8333, "angle": -50.48 },
					{ "time": 1, "angle": -7.04 }
				],
				"translate": [
					{},
					{ "time": 0.3333, "x": 3.79, "y": 2.28 }
				],
				"scale": [
					{}
				],
				"shear": [
					{}
				]
			},
			"Shadow": {
				"rotate": [
					{}
				],
				"translate": [
					{},
					{ "time": 0.1667, "x": 18.78 },
					{ "time": 0.3333, "x": 74.03 },
					{ "time": 0.5, "x": 96.13 },
					{ "time": 0.6667, "x": 224.31 },
					{ "time": 0.8333, "x": 276.25 },
					{ "time": 1, "x": 304.98 }
				],
				"scale": [
					{},
					{ "time": 0.3333, "x": 0.92, "y": 0.92 },
					{ "time": 0.5, "x": 0.96, "y": 0.92 },
					{ "time": 0.6667, "x": 1.25, "y": 1.197 }
				],
				"shear": [
					{}
				]
			},
			"Cloth": {
				"rotate": [
					{}
				],
				"translate": [
					{}
				],
				"scale": [
					{}
				],
				"shear": [
					{}
				]
			}
		}
	},
	"Idle": {
		"slots": {
			"Weapon": {
				"attachment": [
					{ "time": 0.0667, "name": "Weapon-2" },
					{ "time": 0.1333, "name": "Weapon" },
					{ "time": 0.2, "name": "Weapon-2" },
					{ "time": 0.2667, "name": "Weapon" },
					{ "time": 0.3333, "name": "Weapon-2" },
					{ "time": 0.4, "name": "Weapon" },
					{ "time": 0.4667, "name": "Weapon-2" },
					{ "time": 0.5333, "name": "Weapon" },
					{ "time": 0.6, "name": "Weapon-2" },
					{ "time": 0.6667, "name": "Weapon" }
				]
			}
		},
		"bones": {
			"root": {
				"rotate": [
					{ "curve": "stepped" },
					{ "time": 0.6667 }
				],
				"translate": [
					{ "curve": "stepped" },
					{ "time": 0.6667 }
				],
				"scale": [
					{ "curve": "stepped" },
					{ "time": 0.6667 }
				],
				"shear": [
					{ "curve": "stepped" },
					{ "time": 0.6667 }
				]
			},
			"All bone": {
				"rotate": [
					{ "curve": "stepped" },
					{ "time": 0.6667 }
				],
				"translate": [
					{ "curve": "stepped" },
					{ "time": 0.6667 }
				],
				"scale": [
					{ "curve": "stepped" },
					{ "time": 0.6667 }
				],
				"shear": [
					{ "curve": "stepped" },
					{ "time": 0.6667 }
				]
			},
			"Body": {
				"rotate": [
					{ "curve": "stepped" },
					{ "time": 0.6667 }
				],
				"translate": [
					{},
					{ "time": 0.1667, "y": 4.19 },
					{ "time": 0.3333, "y": 6.28 },
					{ "time": 0.5, "y": 4.19 },
					{ "time": 0.6667 }
				],
				"scale": [
					{ "curve": "stepped" },
					{ "time": 0.6667 }
				],
				"shear": [
					{ "curve": "stepped" },
					{ "time": 0.6667 }
				]
			},
			"Hand F1": {
				"rotate": [
					{},
					{ "time": 0.1667, "angle": -3.42 },
					{ "time": 0.3333, "angle": -4.81 },
					{ "time": 0.5, "angle": -3.42 },
					{ "time": 0.6667 }
				],
				"translate": [
					{ "curve": "stepped" },
					{ "time": 0.6667 }
				],
				"scale": [
					{ "curve": "stepped" },
					{ "time": 0.6667 }
				],
				"shear": [
					{ "curve": "stepped" },
					{ "time": 0.6667 }
				]
			},
			"Hand F2": {
				"rotate": [
					{ "curve": "stepped" },
					{ "time": 0.6667 }
				],
				"translate": [
					{ "curve": "stepped" },
					{ "time": 0.6667 }
				],
				"scale": [
					{ "curve": "stepped" },
					{ "time": 0.6667 }
				],
				"shear": [
					{ "curve": "stepped" },
					{ "time": 0.6667 }
				]
			},
			"Weapon": {
				"rotate": [
					{ "curve": "stepped" },
					{ "time": 0.6667 }
				],
				"translate": [
					{ "curve": "stepped" },
					{ "time": 0.6667 }
				],
				"scale": [
					{ "curve": "stepped" },
					{ "time": 0.6667 }
				],
				"shear": [
					{ "curve": "stepped" },
					{ "time": 0.6667 }
				]
			},
			"Hand B": {
				"rotate": [
					{},
					{ "time": 0.1667, "angle": -9.49 },
					{ "time": 0.3333, "angle": -15.87 },
					{ "time": 0.5, "angle": -9.49 },
					{ "time": 0.6667 }
				],
				"translate": [
					{ "curve": "stepped" },
					{ "time": 0.6667 }
				],
				"scale": [
					{ "curve": "stepped" },
					{ "time": 0.6667 }
				],
				"shear": [
					{ "curve": "stepped" },
					{ "time": 0.6667 }
				]
			},
			"Head": {
				"rotate": [
					{},
					{ "time": 0.1667, "angle": 3.49 },
					{ "time": 0.3333, "angle": 5.42 },
					{ "time": 0.5, "angle": 3.49 },
					{ "time": 0.6667 }
				],
				"translate": [
					{ "curve": "stepped" },
					{ "time": 0.6667 }
				],
				"scale": [
					{ "curve": "stepped" },
					{ "time": 0.6667 }
				],
				"shear": [
					{ "curve": "stepped" },
					{ "time": 0.6667 }
				]
			},
			"Leg F": {
				"rotate": [
					{ "curve": "stepped" },
					{ "time": 0.6667 }
				],
				"translate": [
					{ "curve": "stepped" },
					{ "time": 0.6667 }
				],
				"scale": [
					{ "curve": "stepped" },
					{ "time": 0.6667 }
				],
				"shear": [
					{ "curve": "stepped" },
					{ "time": 0.6667 }
				]
			},
			"Leg B": {
				"rotate": [
					{ "curve": "stepped" },
					{ "time": 0.6667 }
				],
				"translate": [
					{ "curve": "stepped" },
					{ "time": 0.6667 }
				],
				"scale": [
					{ "curve": "stepped" },
					{ "time": 0.6667 }
				],
				"shear": [
					{ "curve": "stepped" },
					{ "time": 0.6667 }
				]
			},
			"Shadow": {
				"rotate": [
					{ "curve": "stepped" },
					{ "time": 0.6667 }
				],
				"translate": [
					{ "curve": "stepped" },
					{ "time": 0.6667 }
				],
				"scale": [
					{ "curve": "stepped" },
					{ "time": 0.6667 }
				],
				"shear": [
					{ "curve": "stepped" },
					{ "time": 0.6667 }
				]
			},
			"Cloth": {
				"rotate": [
					{ "curve": "stepped" },
					{ "time": 0.6667 }
				],
				"translate": [
					{ "curve": "stepped" },
					{ "time": 0.6667 }
				],
				"scale": [
					{ "curve": "stepped" },
					{ "time": 0.6667 }
				],
				"shear": [
					{ "curve": "stepped" },
					{ "time": 0.6667 }
				]
			}
		}
	},
	"Walk": {
		"slots": {
			"Weapon": {
				"attachment": [
					{ "time": 0.0667, "name": "Weapon-2" },
					{ "time": 0.1333, "name": "Weapon" },
					{ "time": 0.2, "name": "Weapon-2" },
					{ "time": 0.2667, "name": "Weapon" },
					{ "time": 0.3333, "name": "Weapon-2" },
					{ "time": 0.4, "name": "Weapon" },
					{ "time": 0.4667, "name": "Weapon-2" },
					{ "time": 0.5333, "name": "Weapon" },
					{ "time": 0.6, "name": "Weapon-2" },
					{ "time": 0.6667, "name": "Weapon" }
				]
			}
		},
		"bones": {
			"Weapon": {
				"rotate": [
					{}
				],
				"translate": [
					{}
				],
				"scale": [
					{}
				],
				"shear": [
					{}
				]
			},
			"root": {
				"rotate": [
					{}
				],
				"translate": [
					{}
				],
				"scale": [
					{}
				],
				"shear": [
					{}
				]
			},
			"All bone": {
				"rotate": [
					{}
				],
				"translate": [
					{}
				],
				"scale": [
					{}
				],
				"shear": [
					{}
				]
			},
			"Body": {
				"rotate": [
					{}
				],
				"translate": [
					{},
					{ "time": 0.1667, "y": 8.92 },
					{ "time": 0.3333, "y": 0.89 },
					{ "time": 0.5, "y": 3.57 },
					{ "time": 0.6667, "y": -1.78 }
				],
				"scale": [
					{}
				],
				"shear": [
					{}
				]
			},
			"Hand F1": {
				"rotate": [
					{ "angle": 3.52 },
					{ "time": 0.1667, "angle": 6.3 },
					{ "time": 0.3333, "angle": 0.44 },
					{ "time": 0.5, "angle": 4.93 },
					{ "time": 0.6667, "angle": 2.38 }
				],
				"translate": [
					{}
				],
				"scale": [
					{}
				],
				"shear": [
					{}
				]
			},
			"Hand F2": {
				"rotate": [
					{}
				],
				"translate": [
					{}
				],
				"scale": [
					{}
				],
				"shear": [
					{}
				]
			},
			"Hand B": {
				"rotate": [
					{ "angle": 2.79 },
					{ "time": 0.1667, "angle": 8.56 },
					{ "time": 0.3333, "angle": -2.16 },
					{ "time": 0.5, "angle": 3.2 },
					{ "time": 0.6667, "angle": -7.07 }
				],
				"translate": [
					{}
				],
				"scale": [
					{}
				],
				"shear": [
					{}
				]
			},
			"Head": {
				"rotate": [
					{},
					{ "time": 0.1667, "angle": -3.02 },
					{ "time": 0.3333, "angle": 0.69 },
					{ "time": 0.5, "angle": -1.11 },
					{ "time": 0.6667, "angle": 0.95 }
				],
				"translate": [
					{}
				],
				"scale": [
					{}
				],
				"shear": [
					{}
				]
			},
			"Leg F": {
				"rotate": [
					{},
					{ "time": 0.1667, "angle": -30.07 },
					{ "time": 0.5, "angle": -6.37 },
					{ "time": 0.6667, "angle": -1.74 }
				],
				"translate": [
					{},
					{ "time": 0.1667, "x": -53.52, "y": 17.84 },
					{ "time": 0.3333, "x": -53.52, "y": -5.35 },
					{ "time": 0.5, "x": -33, "y": -5.35 },
					{ "time": 0.6667, "x": -8.03, "y": -5.35 }
				],
				"scale": [
					{}
				],
				"shear": [
					{}
				]
			},
			"Leg B": {
				"rotate": [
					{},
					{ "time": 0.5, "angle": -20.16 },
					{ "time": 0.6667, "angle": -15.63 }
				],
				"translate": [
					{},
					{ "time": 0.1667, "x": 39.25 },
					{ "time": 0.3333, "x": 61.55 },
					{ "time": 0.5, "x": 8.92, "y": 18.73 },
					{ "time": 0.6667, "x": 4.46, "y": -5.35 }
				],
				"scale": [
					{}
				],
				"shear": [
					{}
				]
			},
			"Shadow": {
				"rotate": [
					{}
				],
				"translate": [
					{}
				],
				"scale": [
					{},
					{ "time": 0.1667, "x": 0.912, "y": 0.912 },
					{ "time": 0.3333, "x": 1.012, "y": 1.012 },
					{ "time": 0.5, "x": 0.945, "y": 0.945 }
				],
				"shear": [
					{}
				]
			},
			"Cloth": {
				"rotate": [
					{}
				],
				"translate": [
					{}
				],
				"scale": [
					{}
				],
				"shear": [
					{}
				]
			}
		}
	}
}
}