%YAML 1.1
%TAG !u! tag:unity3d.com,2011:
--- !u!74 &7400000
AnimationClip:
  m_ObjectHideFlags: 0
  m_CorrespondingSourceObject: {fileID: 0}
  m_PrefabInstance: {fileID: 0}
  m_PrefabAsset: {fileID: 0}
  m_Name: Enemy_Death_1
  serializedVersion: 6
  m_Legacy: 0
  m_Compressed: 0
  m_UseHighQualityCurve: 1
  m_RotationCurves: []
  m_CompressedRotationCurves: []
  m_EulerCurves: []
  m_PositionCurves: []
  m_ScaleCurves: []
  m_FloatCurves: []
  m_PPtrCurves:
  - curve:
    - time: 0
      value: {fileID: 21300000, guid: 2d1533ce3d8f1644dbb2102d6c3166c9, type: 3}
    - time: 0.05
      value: {fileID: 21300000, guid: 2e04aab3870fae746a45983c50dfc302, type: 3}
    - time: 0.1
      value: {fileID: 21300000, guid: 6bd4a76c15116be408835bbe66eeb9fa, type: 3}
    - time: 0.15
      value: {fileID: 21300000, guid: 96a0bea2afef8ec428179103130c7e45, type: 3}
    - time: 0.21666667
      value: {fileID: 21300000, guid: cf7d192d9e9281842bdf2392b8639f8f, type: 3}
    - time: 0.26666668
      value: {fileID: 21300000, guid: 344541cbf67cbb94e8c698a0b2bdaf32, type: 3}
    - time: 0.31666666
      value: {fileID: 21300000, guid: c487fb375edcc15449f44ffe3eae9288, type: 3}
    - time: 0.36666667
      value: {fileID: 21300000, guid: 74022ba70e6b52647aaa6df37b5509a5, type: 3}
    - time: 0.41666666
      value: {fileID: 21300000, guid: c996a9d48b481a34e9d2ae8c80477b62, type: 3}
    - time: 0.46666667
      value: {fileID: 21300000, guid: 140ae147bcf5ba741b72bbd3d0f29115, type: 3}
    - time: 0.53333336
      value: {fileID: 21300000, guid: 23e604b2de620d043b7889a628770e9f, type: 3}
    - time: 0.5833333
      value: {fileID: 21300000, guid: 87199bff26646b043a5f35df1c19cd25, type: 3}
    - time: 0.6333333
      value: {fileID: 21300000, guid: f6ffcb8feaaa7de45b264bfa277a975f, type: 3}
    - time: 0.68333334
      value: {fileID: 21300000, guid: aef922213a2d1b44da1ade891de65dab, type: 3}
    - time: 0.73333335
      value: {fileID: 21300000, guid: 41a9017651addd041938e9418df99862, type: 3}
    - time: 0.78333336
      value: {fileID: 21300000, guid: 5e2a1a696420e39489b68a367ffd895a, type: 3}
    - time: 0.85
      value: {fileID: 21300000, guid: 0deece6d60df78c448fa0ba1c7fdf0c4, type: 3}
    - time: 0.9
      value: {fileID: 21300000, guid: cb053dbbf7746ea4abde5a293aaffb14, type: 3}
    - time: 0.95
      value: {fileID: 21300000, guid: ff2f44cd8b5596e4a9fe3961d0190668, type: 3}
    - time: 1
      value: {fileID: 21300000, guid: ff195f20a9a1ab240837d64310a136f6, type: 3}
    attribute: m_Sprite
    path: 
    classID: 114
    script: {fileID: -765806418, guid: f70555f144d8491a825f0804e09c671c, type: 3}
  m_SampleRate: 60
  m_WrapMode: 0
  m_Bounds:
    m_Center: {x: 0, y: 0, z: 0}
    m_Extent: {x: 0, y: 0, z: 0}
  m_ClipBindingConstant:
    genericBindings:
    - serializedVersion: 2
      path: 0
      attribute: 2015549526
      script: {fileID: -765806418, guid: f70555f144d8491a825f0804e09c671c, type: 3}
      typeID: 114
      customType: 0
      isPPtrCurve: 1
    pptrCurveMapping:
    - {fileID: 21300000, guid: 2d1533ce3d8f1644dbb2102d6c3166c9, type: 3}
    - {fileID: 21300000, guid: 2e04aab3870fae746a45983c50dfc302, type: 3}
    - {fileID: 21300000, guid: 6bd4a76c15116be408835bbe66eeb9fa, type: 3}
    - {fileID: 21300000, guid: 96a0bea2afef8ec428179103130c7e45, type: 3}
    - {fileID: 21300000, guid: cf7d192d9e9281842bdf2392b8639f8f, type: 3}
    - {fileID: 21300000, guid: 344541cbf67cbb94e8c698a0b2bdaf32, type: 3}
    - {fileID: 21300000, guid: c487fb375edcc15449f44ffe3eae9288, type: 3}
    - {fileID: 21300000, guid: 74022ba70e6b52647aaa6df37b5509a5, type: 3}
    - {fileID: 21300000, guid: c996a9d48b481a34e9d2ae8c80477b62, type: 3}
    - {fileID: 21300000, guid: 140ae147bcf5ba741b72bbd3d0f29115, type: 3}
    - {fileID: 21300000, guid: 23e604b2de620d043b7889a628770e9f, type: 3}
    - {fileID: 21300000, guid: 87199bff26646b043a5f35df1c19cd25, type: 3}
    - {fileID: 21300000, guid: f6ffcb8feaaa7de45b264bfa277a975f, type: 3}
    - {fileID: 21300000, guid: aef922213a2d1b44da1ade891de65dab, type: 3}
    - {fileID: 21300000, guid: 41a9017651addd041938e9418df99862, type: 3}
    - {fileID: 21300000, guid: 5e2a1a696420e39489b68a367ffd895a, type: 3}
    - {fileID: 21300000, guid: 0deece6d60df78c448fa0ba1c7fdf0c4, type: 3}
    - {fileID: 21300000, guid: cb053dbbf7746ea4abde5a293aaffb14, type: 3}
    - {fileID: 21300000, guid: ff2f44cd8b5596e4a9fe3961d0190668, type: 3}
    - {fileID: 21300000, guid: ff195f20a9a1ab240837d64310a136f6, type: 3}
  m_AnimationClipSettings:
    serializedVersion: 2
    m_AdditiveReferencePoseClip: {fileID: 0}
    m_AdditiveReferencePoseTime: 0
    m_StartTime: 0
    m_StopTime: 1.0166667
    m_OrientationOffsetY: 0
    m_Level: 0
    m_CycleOffset: 0
    m_HasAdditiveReferencePose: 0
    m_LoopTime: 0
    m_LoopBlend: 0
    m_LoopBlendOrientation: 0
    m_LoopBlendPositionY: 0
    m_LoopBlendPositionXZ: 0
    m_KeepOriginalOrientation: 0
    m_KeepOriginalPositionY: 1
    m_KeepOriginalPositionXZ: 0
    m_HeightFromFeet: 0
    m_Mirror: 0
  m_EditorCurves: []
  m_EulerEditorCurves: []
  m_HasGenericRootTransform: 0
  m_HasMotionFloatCurves: 0
  m_Events: []
