%YAML 1.1
%TAG !u! tag:unity3d.com,2011:
--- !u!114 &11400000
MonoBehaviour:
  m_ObjectHideFlags: 0
  m_CorrespondingSourceObject: {fileID: 0}
  m_PrefabInstance: {fileID: 0}
  m_PrefabAsset: {fileID: 0}
  m_GameObject: {fileID: 0}
  m_Enabled: 1
  m_EditorHideFlags: 0
  m_Script: {fileID: 11500000, guid: b3ee05b640e2d374ca7e4bf1718efa72, type: 3}
  m_Name: 3Taxi
  m_EditorClassIdentifier: 
  doWithClan: 0
  rank: 3
  image: {fileID: 21300000, guid: 39c9ef7ba9f16314a88829dbd83897b7, type: 3}
  _name: Taxi
  description: TaxiDesc
  healthRequirement: 5
  attack: 200
  defense: 160
  strength: 100
  intelligence: 100
  moneyMin: 1000
  moneyMax: 1500
  crimePointMin: 7
  crimePointMax: 8
  attackPeriod: 60
  jailRate: 10
  jailSeconds: 60
