%YAML 1.1
%TAG !u! tag:unity3d.com,2011:
--- !u!114 &11400000
MonoBehaviour:
  m_ObjectHideFlags: 0
  m_CorrespondingSourceObject: {fileID: 0}
  m_PrefabInstance: {fileID: 0}
  m_PrefabAsset: {fileID: 0}
  m_GameObject: {fileID: 0}
  m_Enabled: 1
  m_EditorHideFlags: 0
  m_Script: {fileID: 11500000, guid: b3ee05b640e2d374ca7e4bf1718efa72, type: 3}
  m_Name: 7ExchangeOffice
  m_EditorClassIdentifier: 
  doWithClan: 0
  rank: 7
  image: {fileID: 21300000, guid: 32b63459f54328d418de4a7b3b089b21, type: 3}
  _name: ExchangeOffice
  description: ExchangeOfficeDesc
  healthRequirement: 6
  attack: 2000
  defense: 1600
  strength: 200
  intelligence: 200
  moneyMin: 5000
  moneyMax: 7500
  crimePointMin: 15
  crimePointMax: 16
  attackPeriod: 120
  jailRate: 25
  jailSeconds: 600
