%YAML 1.1
%TAG !u! tag:unity3d.com,2011:
--- !u!114 &11400000
MonoBehaviour:
  m_ObjectHideFlags: 0
  m_CorrespondingSourceObject: {fileID: 0}
  m_PrefabInstance: {fileID: 0}
  m_PrefabAsset: {fileID: 0}
  m_GameObject: {fileID: 0}
  m_Enabled: 1
  m_EditorHideFlags: 0
  m_Script: {fileID: 11500000, guid: b3ee05b640e2d374ca7e4bf1718efa72, type: 3}
  m_Name: 8TechnologyCenter
  m_EditorClassIdentifier: 
  doWithClan: 0
  rank: 8
  image: {fileID: 21300000, guid: 2465c5bee0ff9fb47ba475e8cfa4a0cc, type: 3}
  _name: TechnologyCenter
  description: TechnologyCenterDesc
  healthRequirement: 6
  attack: 5000
  defense: 4000
  strength: 200
  intelligence: 200
  moneyMin: 7500
  moneyMax: 10000
  crimePointMin: 17
  crimePointMax: 18
  attackPeriod: 180
  jailRate: 25
  jailSeconds: 900
