%YAML 1.1
%TAG !u! tag:unity3d.com,2011:
--- !u!114 &11400000
MonoBehaviour:
  m_ObjectHideFlags: 0
  m_CorrespondingSourceObject: {fileID: 0}
  m_PrefabInstance: {fileID: 0}
  m_PrefabAsset: {fileID: 0}
  m_GameObject: {fileID: 0}
  m_Enabled: 1
  m_EditorHideFlags: 0
  m_Script: {fileID: 11500000, guid: 858a897041e2653418487360348a83c3, type: 3}
  m_Name: Hand6
  m_EditorClassIdentifier: 
  hash: 727962576
  description: 
  buyPrice: 250000
  sellPrice: 125000
  sellable: 1
  maxStack: 1
  image: {fileID: 21300000, guid: 7f47afee84c7dc644a6b6791e911fb36, type: 3}
  strengthRequirement: 250
  intelligenceRequirement: 250
  cooldownBuff: {fileID: 0}
  category: 4
  attackBonus: 0
  defenseBonus: 200
  strengthBonus: 0
  intelligenceBonus: 0
  inventorySizeBonus: 0
  validate: 0
