%YAML 1.1
%TAG !u! tag:unity3d.com,2011:
--- !u!114 &11400000
MonoBehaviour:
  m_ObjectHideFlags: 0
  m_CorrespondingSourceObject: {fileID: 0}
  m_PrefabInternal: {fileID: 0}
  m_GameObject: {fileID: 0}
  m_Enabled: 1
  m_EditorHideFlags: 0
  m_Script: {fileID: 11500000, guid: 4f95b9bf2fb68234eb4181d6d4e2b18f, type: 3}
  m_Name: FeetShopList
  m_EditorClassIdentifier: 
  description: Weapon List
  eqType: 6
  items:
  - {fileID: 11400000, guid: 86393deb2eced7943af3a9b97e229afe, type: 2}
  - {fileID: 11400000, guid: 6f7f05f2f5d42004b86df1f85d9ea2cf, type: 2}
  - {fileID: 11400000, guid: 209a63e988d9e4d42b9e28218c95076c, type: 2}
  - {fileID: 11400000, guid: 99c2a7be46596684d959ebcb8a3bfa6f, type: 2}
  - {fileID: 11400000, guid: f23f0aca29541954a962b3ea7486bf0e, type: 2}
  - {fileID: 11400000, guid: 8de66eb112cacc34e85d3d3b2e526778, type: 2}
  - {fileID: 11400000, guid: 460e5cedc6acb444b91e14fc0f8ad765, type: 2}
  - {fileID: 11400000, guid: 82a2245eeaf6bb049bb4f0993787ef5e, type: 2}
  - {fileID: 11400000, guid: 621209eca41155043a707468ec1f7863, type: 2}
  - {fileID: 11400000, guid: daf83eef44dbed9498d5cab540d52259, type: 2}
  - {fileID: 11400000, guid: f82e7dea3af68bd47a9567eed1d6fc63, type: 2}
